[
  {
    "id": "coop",
    "name": "The Co-operative Bank",
    "logo": "coop.png"
  },
  {
    "id": "mediaworks",
    "name": "Mediaworks",
    "logo": "mediaworks.png"
  },
  {
    "id": "genesis",
    "name": "Genesis",
    "logo": "genesis.png"
  },
  {
    "id": "southerncross",
    "name": "Southern Cross",
    "logo": "southerncross.png"
  },
  {
    "id": "threenow",
    "name": "Three Now",
    "logo": "threenow.png"
  },
  {
    "id": "westpac",
    "name": "Westpac Bank",
    "logo": "westpac.png"
  },
  {
    "id": "iag",
    "name": "IAG",
    "logo": "iag.png"
  },
  {
    "id": "ami",
    "name": "AMI",
    "logo": "ami.png"
  },
  {
    "id": "mtf",
    "name": "MTF",
    "logo": "mtf.png"
  },
  {
    "id": "state",
    "name": "State Insurance",
    "logo": "state.png"
  },
  {
    "id": "fmg",
    "name": "Fmg",
    "logo": "fmg.png"
  },
  {
    "id": "transpower",
    "name": "Transpower",
    "logo": "transpower.png"
  },
  {
    "id": "vector",
    "name": "Vector",
    "logo": "vector.png"
  },
  {
    "id": "eol",
    "name": "Eol",
    "logo": "eol.png"
  },
  {
    "id": "powershop",
    "name": "Powershop",
    "logo": "powershop.png"
  },
  {
    "id": "kordia",
    "name": "Kordia",
    "logo": "kordia.png"
  },
  {
    "id": "tvnz",
    "name": "Tvnz",
    "logo": "tvnz.png"
  },
  {
    "id": "rnz",
    "name": "Rnz",
    "logo": "rnz.png"
  },
  {
    "id": "metservice",
    "name": "Metservice",
    "logo": "metservice.png"
  },
  {
    "id": "lightbox",
    "name": "Lightbox",
    "logo": "lightbox.png"
  },
  {
    "id": "newshub",
    "name": "Newshub",
    "logo": "newshub.png"
  },
  {
    "id": "newsnow",
    "name": "Newsnow",
    "logo": "newsnow.png"
  },
  {
    "id": "mymsd",
    "name": "Mymsd",
    "logo": "mymsd.png"
  },
  {
    "id": "msd",
    "name": "Msd",
    "logo": "msd.png"
  },
  {
    "id": "studylink",
    "name": "Studylink",
    "logo": "studylink.png"
  },
  {
    "id": "stats",
    "name": "Stats",
    "logo": "stats.png"
  },
  {
    "id": "ir",
    "name": "Ir",
    "logo": "ir.png"
  },
  {
    "id": "vtnz",
    "name": "Vtnz",
    "logo": "vtnz.png"
  },
  {
    "id": "mbie",
    "name": "Mbie",
    "logo": "mbie.png"
  },
  {
    "id": "parliament",
    "name": "Parliament",
    "logo": "parliament.png"
  },
  {
    "id": "tepapa",
    "name": "Tepapa",
    "logo": "tepapa.png"
  },
  {
    "id": "branz",
    "name": "Branz",
    "logo": "branz.png"
  },
  {
    "id": "fonterra",
    "name": "Fonterra",
    "logo": "fonterra.png"
  },
  {
    "id": "nzpost",
    "name": "NZ Post",
    "logo": "nzpost.png"
  },
  {
    "id": "paymark",
    "name": "Paymark",
    "logo": "paymark.png"
  },
  {
    "id": "tab",
    "name": "Tab",
    "logo": "tab.png"
  },
  {
    "id": "flybuys",
    "name": "Flybuys",
    "logo": "flybuys.png"
  },
  {
    "id": "ihaveadream",
    "name": "I have a dream",
    "logo": "ihaveadream.png"
  },
  {
    "id": "wwf",
    "name": "WWF",
    "logo": "wwf.png"
  },
  {
    "id": "bucket",
    "name": "Bucket",
    "logo": "bucket.png"
  },
  {
    "id": "fairground",
    "name": "Fairground",
    "logo": "fairground.png"
  }
]
